.ifndef	CHR_I
CHR_I = 1

.include	"system/ppu.i"

	.enum	chr_obj
		player_walk_large = <((chr_obj_player_walk_large-chr_obj)/PPU_CHR_SIZE)
		player_skid_large = <((chr_obj_player_skid_large-chr_obj)/PPU_CHR_SIZE)
		player_jump_large = <((chr_obj_player_jump_large-chr_obj)/PPU_CHR_SIZE)
		player_swim_large = <((chr_obj_player_swim_large-chr_obj)/PPU_CHR_SIZE)
		player_walk_small = <((chr_obj_player_walk_small-chr_obj)/PPU_CHR_SIZE)
		player_skid_small = <((chr_obj_player_skid_small-chr_obj)/PPU_CHR_SIZE)
		player_jump_small = <((chr_obj_player_jump_small-chr_obj)/PPU_CHR_SIZE)
		player_swim_small = <((chr_obj_player_swim_small-chr_obj)/PPU_CHR_SIZE)
		player_resize	= <((chr_obj_player_resize-chr_obj)/PPU_CHR_SIZE)
		digits_00	= <((chr_obj_digits_00-chr_obj)/PPU_CHR_SIZE)
		bowser_flame	= <((chr_obj_bowser_flame-chr_obj)/PPU_CHR_SIZE)
		bowser_flame_end = <((chr_obj_bowser_flame_end-chr_obj)/PPU_CHR_SIZE)
		flag_victory	= <((chr_obj_flag_victory-chr_obj)/PPU_CHR_SIZE)
		player_crouch	= <((chr_obj_player_crouch-chr_obj)/PPU_CHR_SIZE)
		plat_norm	= <((chr_obj_plat_norm-chr_obj)/PPU_CHR_SIZE)
		player_climb_large = <((chr_obj_player_climb_large-chr_obj)/PPU_CHR_SIZE)
		coin		= <((chr_obj_coin-chr_obj)/PPU_CHR_SIZE)
		fire_ball	= <((chr_obj_fire_ball-chr_obj)/PPU_CHR_SIZE)
		fire_hit	= <((chr_obj_fire_hit-chr_obj)/PPU_CHR_SIZE)
		koopa_a		= <((chr_obj_koopa_a-chr_obj)/PPU_CHR_SIZE)
		goomba		= <((chr_obj_goomba-chr_obj)/PPU_CHR_SIZE)
		bubble		= <((chr_obj_bubble-chr_obj)/PPU_CHR_SIZE)
		plat_cloud	= <((chr_obj_plat_cloud-chr_obj)/PPU_CHR_SIZE)

		mushroom_nw	= <((chr_obj_mushroom_nw-chr_obj)/PPU_CHR_SIZE)
		mushroom_ne	= <((chr_obj_mushroom_ne-chr_obj)/PPU_CHR_SIZE)
		mushroom_sw	= <((chr_obj_mushroom_sw-chr_obj)/PPU_CHR_SIZE)
		mushroom_se	= <((chr_obj_mushroom_se-chr_obj)/PPU_CHR_SIZE)

		princess_a	= <((chr_obj_princess_a-chr_obj)/PPU_CHR_SIZE)

		hammer_bro_a	= <((chr_obj_hammer_bro_a-chr_obj)/PPU_CHR_SIZE)
		flag_enemy	= <((chr_obj_flag_enemy-chr_obj)/PPU_CHR_SIZE)
		hammer		= <((chr_obj_hammer-chr_obj)/PPU_CHR_SIZE)
		brick_piece	= <((chr_obj_brick_piece-chr_obj)/PPU_CHR_SIZE)
		brick		= <((chr_obj_brick-chr_obj)/PPU_CHR_SIZE)
		block_empty	= <((chr_obj_block_empty-chr_obj)/PPU_CHR_SIZE)
		hammer_bro_b	= <((chr_obj_hammer_bro_b-chr_obj)/PPU_CHR_SIZE)
		star_top	= <((chr_obj_star_top-chr_obj)/PPU_CHR_SIZE)
		spiny_egg_a	= <((chr_obj_spiny_egg_a-chr_obj)/PPU_CHR_SIZE)
		player_climb_small = <((chr_obj_player_climb_small-chr_obj)/PPU_CHR_SIZE)
		spiny_egg_b	= <((chr_obj_spiny_egg_b-chr_obj)/PPU_CHR_SIZE)
		spiny		= <((chr_obj_spiny-chr_obj)/PPU_CHR_SIZE)
		player_death	= <((chr_obj_player_death-chr_obj)/PPU_CHR_SIZE)
		koopa_b		= <((chr_obj_koopa_b-chr_obj)/PPU_CHR_SIZE)
		buzzy_a		= <((chr_obj_buzzy_a-chr_obj)/PPU_CHR_SIZE)
		cheep		= <((chr_obj_cheep-chr_obj)/PPU_CHR_SIZE)
		lakitu		= <((chr_obj_lakitu-chr_obj)/PPU_CHR_SIZE)
		bowser		= <((chr_obj_bowser-chr_obj)/PPU_CHR_SIZE)
		toad		= <((chr_obj_toad-chr_obj)/PPU_CHR_SIZE)

		.if	.defined(ANN)
			toad_ext = <((chr_obj_toad_ext-chr_obj)/PPU_CHR_SIZE)
		.endif

		podoboo_a	= <((chr_obj_podoboo_a-chr_obj)/PPU_CHR_SIZE)
		hammer_bro_c	= <((chr_obj_hammer_bro_c-chr_obj)/PPU_CHR_SIZE)
		firefl_top	= <((chr_obj_firefl_top-chr_obj)/PPU_CHR_SIZE)
		podoboo_b	= <((chr_obj_podoboo_b-chr_obj)/PPU_CHR_SIZE)

		princess_b	= <((chr_obj_princess_b-chr_obj)/PPU_CHR_SIZE)

		firefl_stem	= <((chr_obj_firefl_stem-chr_obj)/PPU_CHR_SIZE)

		princess_c	= <((chr_obj_princess_c-chr_obj)/PPU_CHR_SIZE)

		blooper		= <((chr_obj_blooper-chr_obj)/PPU_CHR_SIZE)
		vine		= <((chr_obj_vine-chr_obj)/PPU_CHR_SIZE)
		hammer_bro_d	= <((chr_obj_hammer_bro_d-chr_obj)/PPU_CHR_SIZE)
		star_bottom	= <((chr_obj_star_bottom-chr_obj)/PPU_CHR_SIZE)
		piranha_a	= <((chr_obj_piranha_a-chr_obj)/PPU_CHR_SIZE)
		bullet		= <((chr_obj_bullet-chr_obj)/PPU_CHR_SIZE)
		piranha_b	= <((chr_obj_piranha_b-chr_obj)/PPU_CHR_SIZE)
		goomba_stomped	= <((chr_obj_goomba_stomped-chr_obj)/PPU_CHR_SIZE)
		spring		= <((chr_obj_spring-chr_obj)/PPU_CHR_SIZE)
		buzzy_b		= <((chr_obj_buzzy_b-chr_obj)/PPU_CHR_SIZE)
		digits_10	= <((chr_obj_digits_10-chr_obj)/PPU_CHR_SIZE)
		digits_20	= <((chr_obj_digits_20-chr_obj)/PPU_CHR_SIZE)
		digits_40	= <((chr_obj_digits_40-chr_obj)/PPU_CHR_SIZE)
		digits_50	= <((chr_obj_digits_50-chr_obj)/PPU_CHR_SIZE)
		digits_80	= <((chr_obj_digits_80-chr_obj)/PPU_CHR_SIZE)
		digits_0	= <((chr_obj_digits_0-chr_obj)/PPU_CHR_SIZE)
		empty		= <((chr_obj_empty-chr_obj)/PPU_CHR_SIZE)
		oneup_left	= <((chr_obj_oneup_left-chr_obj)/PPU_CHR_SIZE)
		oneup_right	= <((chr_obj_oneup_right-chr_obj)/PPU_CHR_SIZE)

		.if	.defined(SMBV1)
			filler	= <((chr_obj_filler-chr_obj)/PPU_CHR_SIZE)
		.endif

		.if	.defined(SMB2)
			leaf	= <((chr_obj_leaf-chr_obj)/PPU_CHR_SIZE)
		.endif

		.if	.defined(ANN)
			toads_nsm_a	= <((chr_obj_toads_nsm_a-chr_obj)/PPU_CHR_SIZE)
			toads_nsm_b	= <((chr_obj_toads_nsm_b-chr_obj)/PPU_CHR_SIZE)
			toads_nsm_c	= <((chr_obj_toads_nsm_c-chr_obj)/PPU_CHR_SIZE)
			toads_nsm_d	= <((chr_obj_toads_nsm_d-chr_obj)/PPU_CHR_SIZE)
			toads_nsm_e	= <((chr_obj_toads_nsm_e-chr_obj)/PPU_CHR_SIZE)
			toads_nsm_f	= <((chr_obj_toads_nsm_f-chr_obj)/PPU_CHR_SIZE)
			toads_nsm_g	= <((chr_obj_toads_nsm_g-chr_obj)/PPU_CHR_SIZE)
		.endif
	.endenum

	.enum	chr_bg
		blanks		= <((chr_bg_blanks-chr_bg)/PPU_CHR_SIZE)
		cannon_base_left = <((chr_bg_cannon_base_left-chr_bg)/PPU_CHR_SIZE)
		plat_a_mid	= <((chr_bg_plat_a_mid-chr_bg)/PPU_CHR_SIZE)
		flag_ball_a	= <((chr_bg_flag_ball_a-chr_bg)/PPU_CHR_SIZE)
		hill_a		= <((chr_bg_hill_a-chr_bg)/PPU_CHR_SIZE)
		hill_b		= <((chr_bg_hill_b-chr_bg)/PPU_CHR_SIZE)
		cloud		= <((chr_bg_cloud-chr_bg)/PPU_CHR_SIZE)
		flag_ball_b	= <((chr_bg_flag_ball_b-chr_bg)/PPU_CHR_SIZE)
		pulley_a	= <((chr_bg_pulley_a-chr_bg)/PPU_CHR_SIZE)
		cannon_base_right = <((chr_bg_cannon_base_right-chr_bg)/PPU_CHR_SIZE)
		water		= <((chr_bg_water-chr_bg)/PPU_CHR_SIZE)
		sign_letter_edge = <((chr_bg_sign_letter_edge-chr_bg)/PPU_CHR_SIZE)
		sign_nw		= <((chr_bg_sign_nw-chr_bg)/PPU_CHR_SIZE)
		brick_a		= <((chr_bg_brick_a-chr_bg)/PPU_CHR_SIZE)
		sign_w		= <((chr_bg_sign_w-chr_bg)/PPU_CHR_SIZE)
		brick_b		= <((chr_bg_brick_b-chr_bg)/PPU_CHR_SIZE)
		sign_n		= <((chr_bg_sign_n-chr_bg)/PPU_CHR_SIZE)
		sign_ne		= <((chr_bg_sign_ne-chr_bg)/PPU_CHR_SIZE)
		sign_e		= <((chr_bg_sign_e-chr_bg)/PPU_CHR_SIZE)
		plat_b		= <((chr_bg_plat_b-chr_bg)/PPU_CHR_SIZE)
		block_q		= <((chr_bg_block_q-chr_bg)/PPU_CHR_SIZE)
		block_empty	= <((chr_bg_block_empty-chr_bg)/PPU_CHR_SIZE)
		pulley_b	= <((chr_bg_pulley_b-chr_bg)/PPU_CHR_SIZE)
		floor_castle	= <((chr_bg_floor_castle-chr_bg)/PPU_CHR_SIZE)
		sign_sw		= <((chr_bg_sign_sw-chr_bg)/PPU_CHR_SIZE)
		pipe_v		= <((chr_bg_pipe_v-chr_bg)/PPU_CHR_SIZE)
		plat_a		= <((chr_bg_plat_a-chr_bg)/PPU_CHR_SIZE)
		.if	.defined(SMBM)|.defined(VS_SMB)
			edge_b		= <((chr_bg_edge_b-chr_bg)/PPU_CHR_SIZE)
		.endif
		.if	.defined(SMBV2)
			quotes	= <((chr_bg_quotes-chr_bg)/PPU_CHR_SIZE)
		.endif
		bridge_a	= <((chr_bg_bridge_a-chr_bg)/PPU_CHR_SIZE)
		sign_s		= <((chr_bg_sign_s-chr_bg)/PPU_CHR_SIZE)
		bridge_b	= <((chr_bg_bridge_b-chr_bg)/PPU_CHR_SIZE)
		sign_se		= <((chr_bg_sign_se-chr_bg)/PPU_CHR_SIZE)
		axe		= <((chr_bg_axe-chr_bg)/PPU_CHR_SIZE)
		chain		= <((chr_bg_chain-chr_bg)/PPU_CHR_SIZE)
		post_a		= <((chr_bg_post_a-chr_bg)/PPU_CHR_SIZE)
		floor_underwater = <((chr_bg_floor_underwater-chr_bg)/PPU_CHR_SIZE)
		pipe_h		= <((chr_bg_pipe_h-chr_bg)/PPU_CHR_SIZE)
		sign_text_a	= <((chr_bg_sign_text_a-chr_bg)/PPU_CHR_SIZE)
		rope		= <((chr_bg_rope-chr_bg)/PPU_CHR_SIZE)
		castle_a	= <((chr_bg_castle_a-chr_bg)/PPU_CHR_SIZE)
		post_b		= <((chr_bg_post_b-chr_bg)/PPU_CHR_SIZE)
		pole		= <((chr_bg_pole-chr_bg)/PPU_CHR_SIZE)
		coral_a		= <((chr_bg_coral_a-chr_bg)/PPU_CHR_SIZE)
		coin_a		= <((chr_bg_coin_a-chr_bg)/PPU_CHR_SIZE)
		castle_b	= <((chr_bg_castle_b-chr_bg)/PPU_CHR_SIZE)
		stair		= <((chr_bg_stair-chr_bg)/PPU_CHR_SIZE)
		cloud_small	= <((chr_bg_cloud_small-chr_bg)/PPU_CHR_SIZE)
		floor_normal	= <((chr_bg_floor_normal-chr_bg)/PPU_CHR_SIZE)
		tree		= <((chr_bg_tree-chr_bg)/PPU_CHR_SIZE)
		tree_trunk	= <((chr_bg_tree_trunk-chr_bg)/PPU_CHR_SIZE)
		bridge_parts	= <((chr_bg_bridge_parts-chr_bg)/PPU_CHR_SIZE)
		cursor		= <((chr_bg_cursor-chr_bg)/PPU_CHR_SIZE)
		coin_b		= <((chr_bg_coin_b-chr_bg)/PPU_CHR_SIZE)
		cannon		= <((chr_bg_cannon-chr_bg)/PPU_CHR_SIZE)
		sign_text_b	= <((chr_bg_sign_text_b-chr_bg)/PPU_CHR_SIZE)
		coral_b		= <((chr_bg_coral_b-chr_bg)/PPU_CHR_SIZE)
		.if	.defined(VS_SMB)
			sign_text_vs	= <((chr_bg_sign_text_vs-chr_bg)/PPU_CHR_SIZE)
			window_button	= <((chr_bg_window_button-chr_bg)/PPU_CHR_SIZE)
			window_box_nw	= <((chr_bg_window_box_nw-chr_bg)/PPU_CHR_SIZE)
			window_box_sw	= <((chr_bg_window_box_sw-chr_bg)/PPU_CHR_SIZE)
			window_box_n_s	= <((chr_bg_window_box_n_s-chr_bg)/PPU_CHR_SIZE)
			window_box_ne	= <((chr_bg_window_box_ne-chr_bg)/PPU_CHR_SIZE)
			window_box_w_e	= <((chr_bg_window_box_w_e-chr_bg)/PPU_CHR_SIZE)
			window_box_se	= <((chr_bg_window_box_se-chr_bg)/PPU_CHR_SIZE)
			window_rub	= <((chr_bg_window_rub-chr_bg)/PPU_CHR_SIZE)
			window_end	= <((chr_bg_window_end-chr_bg)/PPU_CHR_SIZE)
		.endif
		.if	.defined(SMB2)
		sign_text_smb2	= <((chr_bg_sign_text_smb2-chr_bg)/PPU_CHR_SIZE)
		.elseif	.defined(ANN)
		sign_text_ann_a	= <((chr_bg_sign_text_ann_a-chr_bg)/PPU_CHR_SIZE)
		.endif
		.if	.defined(SMBV2)
		star_title		= <((chr_bg_star_title-chr_bg)/PPU_CHR_SIZE)
		.endif
		.if	.defined(ANN)
		sign_text_ann_b	= <((chr_bg_sign_text_ann_b-chr_bg)/PPU_CHR_SIZE)
		.endif
	.endenum

.endif	; CHR_I
