.ifndef TUNABLES_I
TUNABLES_I = 1

.include	"system/cpu.i"
.include	"system/ppu.i"

.include	"misc.i"

ENG_FONT_TILE_BASE = 0

START_WARMBOOT_FLAG	= $A5

PPU_NMI_HBLANK_DELAY	= $14

OAM_INIT_SCANLINE	= 248

.ifdef	PAL
	TIMERS_ALL_FRAME_COUNT	= 17

	PLAYER_GRAVITY_INIT	= 112

	JUMP_VELOC_X_CUTOFF_A	= 10
	JUMP_VELOC_X_CUTOFF_B	= 18
	JUMP_VELOC_X_CUTOFF_C	= 29
	JUMP_VELOC_X_CUTOFF_D	= 34

	PLAYER_VELOC_X_CAP_SLOW	= 39

	PLAYER_FRICTION_ADD_HI	= 1

	ANI_VELOC_X_CUTOFF_A	= 32
	ANI_VELOC_X_CUTOFF_B	= 16
	ANI_VELOC_X_CUTOFF_C	= 13

	PROJ_VELOC_X_ABS	= 76
	PROJ_VELOC_Y		= 5
	PROJ_ACCEL_Y_INC	= 96
	PROJ_VELOC_Y_MAX	= 5

	GAME_TIMER_CTL		= 20

	SPRING_ACCEL_Y		= <-14
	SPRING_ACCEL_Y_COL	= <-8

	BULLET_VELOC_X_ABS	= 28
	BULLET_ANI_TIMER	= 9

	MISC_HAMMER_VELOC_X_INIT_ABS = 20
	MISC_HAMMER_ACCEL_Y_INC	= 35
	MISC_HAMMER_VELOC_Y_INIT = <-3

	BLOCK_TIMER_BOUNCE	= 12

	MOTION_GRAVITY_VAL	= 5
	MOTION_FALL_SLOW	= 18
	MOTION_FALL_MID		= 31
	MOTION_FALL_MAX_HI	= 4
	MOTION_BLOCK_FALL_ACCEL_Y_INC = 88

	ACTOR_BASE_VELOC_X	= 10
	ACTOR_BASE_VELOC_X_HARD	= 15

	SPINY_PLAYER_VELOC_X_CUTOFF = 12

	FIREBAR_ANG_VELOC_SLOW	= 48
	FIREBAR_ANG_VELOC_FAST	= 67

	CHEEP_FLY_VELOC_Y	= <-6
	CHEEP_FLY_PLAYER_VELOC_OFFSET_X = 29

	HAMMER_BRO_VELOC_X_C_ABS	= 5
	HAMMER_BRO_VELOC_X_D		= <-10

	GOOMBA_ERASE_CUE	= 11

	BLOOPER_PLAYER_MOTION_OFFSET_Y	= 12

	LAKITU_SPINY_VELOC_X_PLAYER_CUTOFF = 29

	BOWSER_FLAME_ACCEL_X_OFFSET	= 112
	BOWSER_FLAME_ACCEL_X_OFFSET_HARD = 144

	PLAT_RIGHT_VELOC_X	= 19

	KICK_VELOC_X_ABS	= 56

	GROUND_PROC_LIMIT	= 6

	PIPE_TRANSITION_TIME	= 40

	PLAYER_SKID_VELOC_X_CUTOFF = 10
.else
	TIMERS_ALL_FRAME_COUNT	= 20

	PLAYER_GRAVITY_INIT	= 40

	JUMP_VELOC_X_CUTOFF_A	= 9
	JUMP_VELOC_X_CUTOFF_B	= 16
	JUMP_VELOC_X_CUTOFF_C	= 25
	JUMP_VELOC_X_CUTOFF_D	= 28

	PLAYER_VELOC_X_CAP_SLOW	= 33

	PLAYER_FRICTION_ADD_HI	= 0

	ANI_VELOC_X_CUTOFF_A	= 28
	ANI_VELOC_X_CUTOFF_B	= 14
	ANI_VELOC_X_CUTOFF_C	= 11

	PROJ_VELOC_X_ABS	= 64
	PROJ_VELOC_Y		= 4
	PROJ_ACCEL_Y_INC	= 80
	PROJ_VELOC_Y_MAX	= 3

	GAME_TIMER_CTL		= 24

	SPRING_ACCEL_Y		= <-12
	SPRING_ACCEL_Y_COL	= <-7

	BULLET_VELOC_X_ABS	= 24
	BULLET_ANI_TIMER	= 10

	MISC_HAMMER_VELOC_X_INIT_ABS = 16
	MISC_HAMMER_ACCEL_Y_INC	= 16
	MISC_HAMMER_VELOC_Y_INIT = <-2

	BLOCK_TIMER_BOUNCE	= 16

	MOTION_GRAVITY_VAL	= 4
	MOTION_FALL_SLOW	= 15
	MOTION_FALL_MID		= 28
	MOTION_FALL_MAX_HI	= 3
	MOTION_BLOCK_FALL_ACCEL_Y_INC = 80

	ACTOR_BASE_VELOC_X	= 8
	ACTOR_BASE_VELOC_X_HARD	= 12

	SPINY_PLAYER_VELOC_X_CUTOFF = 8

	FIREBAR_ANG_VELOC_SLOW	= 40
	FIREBAR_ANG_VELOC_FAST	= 56

	CHEEP_FLY_VELOC_Y	= <-5
	CHEEP_FLY_PLAYER_VELOC_OFFSET_X = 25

	HAMMER_BRO_VELOC_X_C_ABS	= 4
	HAMMER_BRO_VELOC_X_D		= <-8

	GOOMBA_ERASE_CUE	= 14

	BLOOPER_PLAYER_MOTION_OFFSET_Y	= 16

	LAKITU_SPINY_VELOC_X_PLAYER_CUTOFF = 25

	BOWSER_FLAME_ACCEL_X_OFFSET	= 64
	BOWSER_FLAME_ACCEL_X_OFFSET_HARD = 96

	PLAT_RIGHT_VELOC_X	= 16

	KICK_VELOC_X_ABS	= 48

	GROUND_PROC_LIMIT	= 5

	PIPE_TRANSITION_TIME	= 48

	PLAYER_SKID_VELOC_X_CUTOFF = 9
.endif

ACTOR_HAMMER_BRO_VELOC_X	= 8
ACTOR_HAMMER_BRO_VELOC_X_HARD	= 12

TITLE_DEMO_TIMER	= $18
TITLE_SELECT_TIMER	= $10

BG_BUFFER_SIZE		= $D0

VICTORY_X_POS		= $60
VICTORY_SCROLL		= $80
VICTORY_TICK		= 4
.if	.defined(SMB)
	VICTORY_MSG_TOAD	= 2
	VICTORY_MSG_ENDING	= 3
	VICTORY_NOTICK_END	= 4
	VICTORY_MSG_LAST 	= 6
	VICTORY_MSG_BOUND_HI	= 9

	VICTORY_TIMER_SET	= 6
.elseif	.defined(SMBV2)
	VICTORY_MSG_TOAD	= 1
	VICTORY_MSG_ENDING	= 2
	VICTORY_NOTICK_END	= 3
	VICTORY_MSG_LAST	= 5
	VICTORY_MSG_BOUND_HI	= 8

	VICTORY_TIMER_SET	= 8
.elseif	.defined(VS_SMB)
	VICTORY_MSG_TOAD	= 2
	VICTORY_MSG_TIMER_LOWER_B = 6
	VICTORY_NOTICK_END	= 3
	VICTORY_MSG_LAST	= 5
	VICTORY_MSG_ENDING	= 7
	VICTORY_MSG_BOUND_HI	= 13

	VICTORY_TIMER_SET	= 12
.endif

.if	.defined(SMB)
	ENG_HARDMODE_B_COURSE	= course::no_05
	ENG_HARDMODE_B_GOAL	= 2
.elseif	.defined(VS_SMB)
	ENG_HARDMODE_B_COURSE	= course::no_04
	ENG_HARDMODE_B_GOAL	= 1
.elseif	.defined(SMBV2)
	ENG_HARDMODE_B_COURSE	= course::no_04
	ENG_HARDMODE_B_GOAL	= 3
.endif

ENG_TILEOBJ_NULL	= 0
SCENERY_ROW_SIZE	= 3

ENG_PROC_SLOTS		= 7

COIN_MAX		= 100
COIN_VS_INC		= 50

ENG_PLAYER_OBJ_MAX	= 1
ENG_ACTOR_MAX		= 6
ENG_PROJ_MAX		= 2
ENG_BLOCK_MAX		= 4
ENG_MISC_MAX		= 9
ENG_BUBBLE_MAX		= 3

POWERUP_ACTOR_IDX	= (ENG_ACTOR_MAX-1)

ACTIVE_BLOCK_MAX	= 2

ENG_PLAYER_OBJ_OFF	= 0
ENG_ACTOR_OFF		= (ENG_PLAYER_OBJ_OFF+ENG_PLAYER_OBJ_MAX)
ENG_PROJ_OFF		= (ENG_ACTOR_OFF+ENG_ACTOR_MAX)
ENG_BLOCK_OFF		= (ENG_PROJ_OFF+ENG_PROJ_MAX)
ENG_MISC_OFF		= (ENG_BLOCK_OFF+ENG_BLOCK_MAX)
ENG_BUBBLE_OFF		= (ENG_MISC_OFF+ENG_MISC_MAX)

ENG_PLAYER_OBJ_REL_OFF	= 0
ENG_ACTOR_REL_OFF	= (ENG_PLAYER_OBJ_REL_OFF+ENG_PLAYER_OBJ_MAX)
ENG_PROJ_REL_OFF	= (ENG_ACTOR_REL_OFF+1)
ENG_BUBBLE_REL_OFF	= (ENG_PROJ_REL_OFF+1)
ENG_BLOCK_REL_OFF	= (ENG_BUBBLE_REL_OFF+1)
ENG_MISC_REL_OFF	= (ENG_BLOCK_REL_OFF+2)

NMI_BUFFER_ENTRY_MAX	= 22
NMI_BUFFER_ENTRY_OFFSET_SIZE = 1
NMI_BUFFER_ENTRY_DATA_SIZE = 1
NMI_BUFFER_ENTRY_SIZE	= (PPU_ADDR_SIZE+NMI_BUFFER_ENTRY_DATA_SIZE)

METATILE_MAX	= 13

NMI_INC_ROW	= %10000000
NMI_INC_COL	= %00000000
NMI_REPEAT	= %01000000
NMI_LIST_END	= 0

.if	.defined(SMBV1)
	LOOP_VAL_COUNT	= 11
.elseif	.defined(SMB2)
	LOOP_VAL_COUNT	= 12
.elseif	.defined(ANN)
	LOOP_VAL_COUNT	= 10
.endif

ACTOR_SWAPPABLE_EASY	= actor::goomba
ACTOR_SWAPPABLE_HARD	= actor::buzzy_beetle

ACTOR_COL_BOX_LARGE	= col_boxes::box_3
ACTOR_COL_BOX_SMALL	= col_boxes::box_9

ACTOR_BOWSER_FLAME_TIMER	= 32
ACTOR_BOWSER_FLAME_TIMER_HARD_OFFSET	= 16

ACTOR_BOWSER_TIMER_INIT		= 32

SCORE_DIGITS_MAX	= 7

FLAG_SCORE_VALUE_ONEUP	= 5

PLAYER_TILES_OFFSET_JUMP	= 0
PLAYER_TILES_OFFSET_SWIM	= 1
PLAYER_TILES_OFFSET_STAND	= 2
PLAYER_TILES_OFFSET_SKID	= 3
PLAYER_TILES_OFFSET_WALK	= 4
PLAYER_TILES_OFFSET_CLIMB	= 5

PLAYER_SPR_SWIM_FOOT_ALTER_FRAME	= 2

PLAYER_SPR_OFFSET_FOOT_LEFT	= 6
PLAYER_ROW_SIZE			= 2
PLAYER_ROW_COUNT		= 4
PLAYER_SPR_SIZE			= (PLAYER_ROW_COUNT*PLAYER_ROW_SIZE)

ACTOR_SPR_SIZE			= 6

ENG_ERR_MSG_SIZE_MAX		= 8

BG_TEXT_END_VAL			= $FF

PLAYER_NAME_LENGTH	= 5

STAT_LEN_MAX	= 6
STATS_TIME_LEN	= 3

SPRING_SPECIAL_ACCEL_Y	= <-32

HARD_MODE_GAME_CLEARS	= 8

BG_ATTR_COUNT	= 7

BLOCK_INVIS_REQ_VAL             = 0
BLOCK_INVIS_COUNTING_VAL        = 1

SCENERY_ACTIVE_MAX	= 3

SRAND_SIZE	= 7

ACTOR_A_COUNT	= 21
ACTOR_B_COUNT	= 33

.endif	; TUNABLES_I
