.ifndef	CPU_I
CPU_I	= 1

BITS_IN_BYTE	= 8
OP_SIZE		= 1
WORD_SIZE	= 2
RAM_BASE	= $000
STACK_BASE	= $100
STACK_SIZE	= $100
RAM_END		= $800
RAM_MASK        = %0000011111111111
MIRROR_MASK	= $1800
NMI		= $FFFA
RESET		= $FFFC
IRQ		= $FFFE

CPU_OPCODE_ASL_ABS	= $0E
CPU_OPCODE_BIT_ABS	= $2C
CPU_OPCODE_JMP		= $4C
CPU_OPCODE_RTS		= $60
CPU_OPCODE_BCC		= $90
CPU_OPCODE_BCS		= $B0

.if	.defined(PAL)
CLOCK_FREQ_HZ	= 1662607
.else
CLOCK_FREQ_HZ	= 1789773
.endif

.endif	; CPU_I
