.ifndef PALETTE_I
PALETTE_I = 1

.include	"./ppu.i"

.if	.defined(CONS)
PPU_COLOR_GREY0		= (PPU_COLOR_LEV0|PPU_COLOR_GREY)
PPU_COLOR_AZURE0	= (PPU_COLOR_LEV0|PPU_COLOR_AZURE)
PPU_COLOR_BLUE0		= (PPU_COLOR_LEV0|PPU_COLOR_BLUE)
PPU_COLOR_VIOLET0	= (PPU_COLOR_LEV0|PPU_COLOR_VIOLET)
PPU_COLOR_MAGENTA0	= (PPU_COLOR_LEV0|PPU_COLOR_MAGENTA)
PPU_COLOR_ROSE0		= (PPU_COLOR_LEV0|PPU_COLOR_ROSE)
PPU_COLOR_RED0		= (PPU_COLOR_LEV0|PPU_COLOR_RED)
PPU_COLOR_ORANGE0	= (PPU_COLOR_LEV0|PPU_COLOR_ORANGE)
PPU_COLOR_YELLOW0	= (PPU_COLOR_LEV0|PPU_COLOR_YELLOW)
PPU_COLOR_YGREEN0	= (PPU_COLOR_LEV0|PPU_COLOR_YGREEN)
PPU_COLOR_GREEN0	= (PPU_COLOR_LEV0|PPU_COLOR_GREEN)
PPU_COLOR_SPRING0	= (PPU_COLOR_LEV0|PPU_COLOR_SPRING)
PPU_COLOR_CYAN0		= (PPU_COLOR_LEV0|PPU_COLOR_CYAN)
PPU_COLOR_VSBLACK0	= (PPU_COLOR_LEV0|PPU_COLOR_VSBLACK)
PPU_COLOR_BLACK0	= (PPU_COLOR_LEV0|PPU_COLOR_BLACK)
PPU_COLOR_PITCH0	= (PPU_COLOR_LEV0|PPU_COLOR_PITCH)

PPU_COLOR_GREY1		= (PPU_COLOR_LEV1|PPU_COLOR_GREY)
PPU_COLOR_AZURE1	= (PPU_COLOR_LEV1|PPU_COLOR_AZURE)
PPU_COLOR_BLUE1		= (PPU_COLOR_LEV1|PPU_COLOR_BLUE)
PPU_COLOR_VIOLET1	= (PPU_COLOR_LEV1|PPU_COLOR_VIOLET)
PPU_COLOR_MAGENTA1	= (PPU_COLOR_LEV1|PPU_COLOR_MAGENTA)
PPU_COLOR_ROSE1		= (PPU_COLOR_LEV1|PPU_COLOR_ROSE)
PPU_COLOR_RED1		= (PPU_COLOR_LEV1|PPU_COLOR_RED)
PPU_COLOR_ORANGE1	= (PPU_COLOR_LEV1|PPU_COLOR_ORANGE)
PPU_COLOR_YELLOW1	= (PPU_COLOR_LEV1|PPU_COLOR_YELLOW)
PPU_COLOR_YGREEN1	= (PPU_COLOR_LEV1|PPU_COLOR_YGREEN)
PPU_COLOR_GREEN1	= (PPU_COLOR_LEV1|PPU_COLOR_GREEN)
PPU_COLOR_SPRING1	= (PPU_COLOR_LEV1|PPU_COLOR_SPRING)
PPU_COLOR_CYAN1		= (PPU_COLOR_LEV1|PPU_COLOR_CYAN)
PPU_COLOR_VSBLACK1	= (PPU_COLOR_LEV1|PPU_COLOR_VSBLACK)
PPU_COLOR_BLACK1	= (PPU_COLOR_LEV1|PPU_COLOR_BLACK)
PPU_COLOR_PITCH1	= (PPU_COLOR_LEV1|PPU_COLOR_PITCH)

PPU_COLOR_GREY2		= (PPU_COLOR_LEV2|PPU_COLOR_GREY)
PPU_COLOR_AZURE2	= (PPU_COLOR_LEV2|PPU_COLOR_AZURE)
PPU_COLOR_BLUE2		= (PPU_COLOR_LEV2|PPU_COLOR_BLUE)
PPU_COLOR_VIOLET2	= (PPU_COLOR_LEV2|PPU_COLOR_VIOLET)
PPU_COLOR_MAGENTA2	= (PPU_COLOR_LEV2|PPU_COLOR_MAGENTA)
PPU_COLOR_ROSE2		= (PPU_COLOR_LEV2|PPU_COLOR_ROSE)
PPU_COLOR_RED2		= (PPU_COLOR_LEV2|PPU_COLOR_RED)
PPU_COLOR_ORANGE2	= (PPU_COLOR_LEV2|PPU_COLOR_ORANGE)
PPU_COLOR_YELLOW2	= (PPU_COLOR_LEV2|PPU_COLOR_YELLOW)
PPU_COLOR_YGREEN2	= (PPU_COLOR_LEV2|PPU_COLOR_YGREEN)
PPU_COLOR_GREEN2	= (PPU_COLOR_LEV2|PPU_COLOR_GREEN)
PPU_COLOR_SPRING2	= (PPU_COLOR_LEV2|PPU_COLOR_SPRING)
PPU_COLOR_CYAN2		= (PPU_COLOR_LEV2|PPU_COLOR_CYAN)
PPU_COLOR_VSBLACK2	= (PPU_COLOR_LEV2|PPU_COLOR_VSBLACK)
PPU_COLOR_BLACK2	= (PPU_COLOR_LEV2|PPU_COLOR_BLACK)
PPU_COLOR_PITCH2	= (PPU_COLOR_LEV2|PPU_COLOR_PITCH)

PPU_COLOR_GREY3		= (PPU_COLOR_LEV3|PPU_COLOR_GREY)
PPU_COLOR_AZURE3	= (PPU_COLOR_LEV3|PPU_COLOR_AZURE)
PPU_COLOR_BLUE3		= (PPU_COLOR_LEV3|PPU_COLOR_BLUE)
PPU_COLOR_VIOLET3	= (PPU_COLOR_LEV3|PPU_COLOR_VIOLET)
PPU_COLOR_MAGENTA3	= (PPU_COLOR_LEV3|PPU_COLOR_MAGENTA)
PPU_COLOR_ROSE3		= (PPU_COLOR_LEV3|PPU_COLOR_ROSE)
PPU_COLOR_RED3		= (PPU_COLOR_LEV3|PPU_COLOR_RED)
PPU_COLOR_ORANGE3	= (PPU_COLOR_LEV3|PPU_COLOR_ORANGE)
PPU_COLOR_YELLOW3	= (PPU_COLOR_LEV3|PPU_COLOR_YELLOW)
PPU_COLOR_YGREEN3	= (PPU_COLOR_LEV3|PPU_COLOR_YGREEN)
PPU_COLOR_GREEN3	= (PPU_COLOR_LEV3|PPU_COLOR_GREEN)
PPU_COLOR_SPRING3	= (PPU_COLOR_LEV3|PPU_COLOR_SPRING)
PPU_COLOR_CYAN3		= (PPU_COLOR_LEV3|PPU_COLOR_CYAN)
PPU_COLOR_VSBLACK3	= (PPU_COLOR_LEV3|PPU_COLOR_VSBLACK)
PPU_COLOR_BLACK3	= (PPU_COLOR_LEV3|PPU_COLOR_BLACK)
PPU_COLOR_PITCH3	= (PPU_COLOR_LEV3|PPU_COLOR_PITCH)
.elseif	.defined(VS_2C04_0004)
PPU_COLOR_GREY0		= $26
PPU_COLOR_AZURE0	= $06
PPU_COLOR_BLUE0		= $23
PPU_COLOR_MAGENTA0	= $20
PPU_COLOR_ROSE0		= $1C
PPU_COLOR_ORANGE0	= $22
PPU_COLOR_YELLOW0	= $09
PPU_COLOR_YGREEN0	= $3F
PPU_COLOR_GREEN0	= $32
PPU_COLOR_CYAN0		= $28
PPU_COLOR_PITCH0	= $14

PPU_COLOR_GREY1		= $08
PPU_COLOR_AZURE1	= $2A
PPU_COLOR_BLUE1		= $12
PPU_COLOR_ROSE1		= $27
PPU_COLOR_RED1		= $33
PPU_COLOR_ORANGE1	= $07
PPU_COLOR_YELLOW1	= $00
PPU_COLOR_YGREEN1	= $1B
PPU_COLOR_GREEN1	= $0E
PPU_COLOR_CYAN1		= $02
PPU_COLOR_PITCH1	= $04

PPU_COLOR_AZURE2	= $1F
PPU_COLOR_BLUE2		= $1A
PPU_COLOR_ROSE2		= $10
PPU_COLOR_ORANGE2	= $39
PPU_COLOR_YGREEN2	= $3C

PPU_COLOR_GREY3		= $36
PPU_COLOR_AZURE3	= $3E
PPU_COLOR_RED3		= $0C
PPU_COLOR_ORANGE3	= $0D
PPU_COLOR_YGREEN3	= $0A
PPU_COLOR_GREEN3	= $1E
PPU_COLOR_CYAN3		= $37
.endif

.endif	; PALETTE_I
